SVEIRD compartmental model with optional Bayesian data assimilation — SVEIRD.BayesianDataAssimilation • spatialEpisim.foundation
…
#> Warning: The result of (global) sum total of the Infected compartment is NaN according to terra, so the check that the number of unique infection likelihoods is greater than one is being skipped this iteration. See issue #13.
#> Iterating...
#> Warning: The result of (global) sum total of the Infected compartment is NaN according to terra, so the check that the number of unique infection likelihoods is greater than one is being skipped this iteration. See issue #13.
#> Iterating...
#> Warning: The result of (global) sum total of the Infected compartment is NaN according to terra, so the check that the number of unique infection likelihoods is greater than one is being skipped this iteration. See issue #13.
#> Iterating...
#> Warning: The result of (global) sum total of the Infected compartment is NaN according to terra, so the check that the number of unique infection likelihoods is greater than one is being skipped this iteration. See issue #13.
#> Iterating...
#> Warning: The result of (global) sum total of the Infected compartment is NaN according to terra, so the check that the number of unique infection likelihoods is greater than one is being skipped this iteration. See issue #13.
#> Iterating...
#> Warning: The result of (global) sum total of the Infected compartment is NaN according to terra, so the check that the number of unique infection likelihoods is greater than one is being skipped this iteration. See issue #13.
#> Iterating...
#> Warning: The result of (global) sum total of the Infected compartment is NaN according to terra, so the check that the number of unique infection likelihoods is greater than one is being skipped this iteration. See issue #13.
#> $table
#> # A tibble: 31 × 15
#>    Date              N        S     V     E     I     R     D  newV  newE  newI
#>    <date>        <dbl>    <dbl> <dbl> <dbl> <dbl> <dbl> <dbl> <dbl> <dbl> <dbl>
#>  1 2018-08-01 12256075 12255913     0   108    54     0    34     0     0     0
#>  2 2018-08-02 12256075 12255484   429   108    53     1    34     0     0     0
#>  3 2018-08-03 12256075 12255055   858   108    52     2    34     0     0     0
#>  4 2018-08-04 12256075 12254626  1287   108    51     3    34     0     0     0
#>  5 2018-08-05 12256075 12254198  1716   108    50     4    34     0     0     0
#>  6 2018-08-06        0 12253769  2145     0     0     5    34     0     0     0
#>  7 2018-08-07        0        0  2574     0     0     0     0     0     0     0
#>  8 2018-08-08        0        0     0     0     0     0     0     0     0     0
#>  9 2018-08-09        0        0     0     0     0     0     0     0     0     0
#> 10 2018-08-10        0        0     0     0     0     0     0     0     0     0
#> # ℹ 21 more rows
#> # ℹ 4 more variables: newR <dbl>, newD <dbl>, cumE <dbl>, cumI <dbl>
…
